Yang MSA - Introduction to ANOVA and Regression
…
There appears to be a significant difference in mean sales price between the different levels of exterior quality.

Code

train$pred_anova <- predict(ames_lm, data = train)
train$resid_anova <- resid(ames_lm, data = train)

model_output <- train |> select(Sale_Price, pred_anova, resid_anova)
model_output

# A tibble: 2,051 × 3
   Sale_Price pred_anova resid_anova
        <int>      <dbl>       <dbl>
 1     232600    228910.       3690.
 2     166000    228910.     -62910.
 3     170000    142107.      27893.
 4     252000    228910.      23090.
 5     134000    142107.      -8107.
 6     164700    228910.     -64210.
 7     193500    142107.      51393.
 8     118500    142107.     -23607.
 9      94000    142107.     -48107.
10     111250    142107.     -30857.
# ℹ 2,041 more rows
…
