Yang MSA - Getting to Know Your Classmates Data
…
Birth_Month Column

​

classmates <- classmates %>%
    rowwise() %>%
    mutate(Birth_Month = str_split(Birth_Month_Year, ", ")[[1]][1])

classmates %>%
    select(Birth_Month)

# A tibble: 96 × 1
# Rowwise: 
   Birth_Month
   <chr>      
 1 December   
 2 7          
 3 April      
 4 November   
 5 June       
 6 December   
 7 May        
 8 January    
 9 October    
10 November   
# ℹ 86 more rows

Birth_Year Column

​

classmates <- classmates %>%
    rowwise() %>%
    mutate(Birth_Year = str_split(Birth_Month_Year, ", ")[[1]][2])

classmates %>%
    select(Birth_Year)

# A tibble: 96 × 1
# Rowwise: 
   Birth_Year
   <chr>     
 1 1999      
 2 1998      
 3 1999      
 4 1999      
 5 1991      
 6 1999      
 7 2000      
 8 1998      
 9 1998      
10 2001      
# ℹ 86 more rows
Standardizing Birth_Year and Birth_Month

​

classmates <- classmates %>%
    mutate(Birth_Month = str_to_title(str_trim(Birth_Month))) %>%
    mutate(Birth_Month = ifelse(Birth_Month %in% as.character(1:12), month.name[as.integer(Birth_Month)], Birth_Month))

classmates <- classmates %>%
    mutate_at(c("Birth_Year"), ~ na_if(., ""))

classmates %>%
    select(Birth_Month, Birth_Year)

# A tibble: 96 × 2
# Rowwise: 
   Birth_Month Birth_Year
   <chr>       <chr>     
 1 December    1999      
 2 July        1998      
 3 April       1999      
 4 November    1999      
 5 June        1991      
 6 December    1999      
 7 May         2000      
 8 January     1998      
 9 October     1998      
10 November    2001      
# ℹ 86 more rows
…
classmates <- classmates %>%
    mutate(State = str_trim(State)) %>%
    mutate(State = case_when(
        str_detect(Country, "United States", negate = TRUE) ~ NA_character_,
        (str_to_upper(State) %in% state.abb) ~ state.name[match(State, state.abb)],
        (str_to_title(State) %in% state.name) ~ State,
        TRUE ~ NA_character_
    )) %>%
    mutate(State = str_to_title(State))

classmates %>%
    select(State)

# A tibble: 96 × 1
# Rowwise: 
   State         
   <chr>         
 1 North Carolina
 2 Virginia      
 3 North Carolina
 4 California    
 5 Kentucky      
 6 North Carolina
 7 <NA>          
 8 <NA>          
 9 North Carolina
10 Illinois      
# ℹ 86 more rows
…
Wide to Long Languages Column

classmates_copy <- data.frame(classmates)
classmates <- classmates %>%
    mutate(Languages = str_squish(Languages)) %>%
    separate_longer_delim(Languages, ", ") %>%
    mutate(Languages = str_replace_all(Languages, ",", ""))

classmates

# A tibble: 150 × 9
   Birth_Month_Year State          Country      Languages When_Hear_About_Prog…¹
   <chr>            <chr>          <chr>        <chr>     <chr>                 
 1 December, 1999   North Carolina United Stat… English   1-2 years             
 2 7, 1998          Virginia       United Stat… English   1-2 years             
 3 7, 1998          Virginia       United Stat… Spanish   1-2 years             
 4 April, 1999      North Carolina United Stat… English   3-5 years             
 5 November, 1999   California     United Stat… English   Less than one year ago
 6 June, 1991       Kentucky       United Stat… English   1-2 years             
 7 December, 1999   North Carolina United Stat… English   Less than one year ago
 8 May, 2000        <NA>           South Korea  English   Less than one year ago
 9 May, 2000        <NA>           South Korea  Korean    Less than one year ago
10 January, 1998    <NA>           South Korea  English   1-2 years             
# ℹ 140 more rows
# ℹ abbreviated name: ¹​When_Hear_About_Program
# ℹ 4 more variables: How_Hear_About_Program <chr>, Hobbies <chr>,
#   Birth_Month <chr>, Birth_Year <chr>
…
Wide to Long Hobbies Column

classmates <- classmates %>%
    mutate(Hobbies = str_squish(Hobbies)) %>%
    separate_longer_delim(Hobbies, ", ")

classmates

# A tibble: 502 × 9
   Birth_Month_Year State          Country      Languages When_Hear_About_Prog…¹
   <chr>            <chr>          <chr>        <chr>     <chr>                 
 1 December, 1999   North Carolina United Stat… English   1-2 years             
 2 December, 1999   North Carolina United Stat… English   1-2 years             
 3 7, 1998          Virginia       United Stat… English   1-2 years             
 4 7, 1998          Virginia       United Stat… English   1-2 years             
 5 7, 1998          Virginia       United Stat… English   1-2 years             
 6 7, 1998          Virginia       United Stat… English   1-2 years             
 7 7, 1998          Virginia       United Stat… Spanish   1-2 years             
 8 7, 1998          Virginia       United Stat… Spanish   1-2 years             
 9 7, 1998          Virginia       United Stat… Spanish   1-2 years             
10 7, 1998          Virginia       United Stat… Spanish   1-2 years             
# ℹ 492 more rows
# ℹ abbreviated name: ¹​When_Hear_About_Program
# ℹ 4 more variables: How_Hear_About_Program <chr>, Hobbies <chr>,
#   Birth_Month <chr>, Birth_Year <chr>
…
Standardizing Birth_Month_Year

classmates <- classmates %>%
    mutate(Birth_Month_Year = paste(Birth_Month, Birth_Year, sep = ", "))

classmates %>%
    select(Birth_Month_Year)

# A tibble: 502 × 1
   Birth_Month_Year
   <chr>           
 1 December, 1999  
 2 December, 1999  
 3 July, 1998      
 4 July, 1998      
 5 July, 1998      
 6 July, 1998      
 7 July, 1998      
 8 July, 1998      
 9 July, 1998      
10 July, 1998      
# ℹ 492 more rows
…
